<?xml version="1.0" encoding="UTF-8"?>
<!-- Generated by Pixelmator Pro 3.3.8 -->
<svg width="1147" height="1145" viewBox="0 0 1147 1145" xmlns="http://www.w3.org/2000/svg">
    <path id="Path-copy" fill="#efebe3" stroke="none" d="M 604.552551 114.324097 L 572.500732 146.375916 L 540.448975 114.324097 C 483.766052 57.764648 406.960663 26 326.885925 26 C 246.811157 26 170.006287 57.764648 113.32338 114.324097 C 56.763405 171.007568 24.998724 247.811951 24.998724 327.886719 C 24.998724 407.961914 56.763405 484.766785 113.32338 541.449707 L 145.37468 573.501526 L 113.32338 605.553345 C 56.763405 662.236206 24.998724 739.041077 24.998724 819.115845 C 24.998724 899.190613 56.763405 975.995483 113.32338 1032.678345 C 170.006287 1089.236816 246.811157 1121 326.885925 1121 C 406.960663 1121 483.766052 1089.236816 540.448975 1032.678345 L 572.500732 1000.626587 L 604.552551 1032.678345 C 661.235474 1089.236816 738.040344 1121 818.115051 1121 C 898.189819 1121 974.994629 1089.236816 1031.677612 1032.678345 C 1088.236084 975.995483 1119.999268 899.190613 1119.999268 819.115845 C 1119.999268 739.041077 1088.236084 662.236206 1031.677612 605.553345 L 999.625854 573.501526 L 1031.677612 541.449707 C 1088.236084 484.766785 1119.999268 407.961914 1119.999268 327.886719 C 1119.999268 247.811951 1088.236084 171.007568 1031.677612 114.324097 C 974.994629 57.764648 898.189819 26 818.115051 26 C 738.040344 26 661.235474 57.764648 604.552551 114.324097 Z M 166.57666 488.046631 C 124.16127 445.536194 100.340912 387.937988 100.340912 327.886719 C 100.340912 267.835876 124.16127 210.237122 166.57666 167.727234 C 209.086105 125.311829 266.685272 101.490967 326.736084 101.490967 C 386.786957 101.490967 444.386139 125.311829 486.896545 167.727234 L 759.237305 440.067993 L 679.157593 520.148193 L 401.490479 242.481628 C 380.235748 221.274109 351.436401 209.363708 321.411224 209.363708 C 291.385559 209.363708 262.585724 221.274109 241.331009 242.481628 C 220.123062 263.736267 208.213135 292.535583 208.213135 322.560791 C 208.213135 352.586487 220.123062 381.386292 241.331009 402.641052 L 278.708191 440.0177 L 198.628937 520.09845 L 166.57666 488.046631 Z M 759.187561 333.211975 L 796.564758 295.834351 C 803.646973 288.756104 813.252502 284.780029 823.266235 284.780029 C 833.279968 284.780029 842.885498 288.756104 849.967834 295.834351 C 857.035095 302.924561 861.00177 312.526672 861.00177 322.536926 C 861.00177 332.546631 857.035095 342.148193 849.967834 349.238403 L 812.590576 386.615112 L 759.187561 333.211975 Z M 625.704773 573.451721 L 572.301697 626.854797 L 518.898621 573.451721 L 572.301697 520.048645 L 625.704773 573.451721 Z M 385.465057 333.211975 L 332.061981 386.615112 L 294.684326 349.238403 C 287.606049 342.154724 283.630432 332.550598 283.630432 322.536926 C 283.630432 312.522705 287.606049 302.918091 294.684326 295.834351 C 301.768036 288.756104 311.372162 284.780029 321.385864 284.780029 C 331.400055 284.780029 341.00415 288.756104 348.087402 295.834351 L 385.465057 333.211975 Z M 486.896545 979.225525 C 444.386139 1021.639404 386.786957 1045.459351 326.736084 1045.459351 C 266.685272 1045.459351 209.086105 1021.639404 166.57666 979.225525 C 124.16127 936.717102 100.340912 879.118408 100.340912 819.06604 C 100.340912 759.013733 124.16127 701.415039 166.57666 658.906616 L 438.917419 386.565857 L 518.998169 466.645081 L 241.331009 744.311646 C 220.123062 765.563416 208.213135 794.365234 208.213135 824.391418 C 208.213135 854.417603 220.123062 883.214478 241.331009 904.47113 C 262.585724 925.678162 291.385559 937.588074 321.411224 937.588074 C 351.436401 937.588074 380.235748 925.678162 401.490479 904.47113 L 438.868134 867.093994 L 518.948364 947.173767 L 486.896545 979.225525 Z M 332.061981 760.238098 L 385.465057 813.641113 L 348.087402 851.018311 C 340.99765 858.085632 331.396057 862.052307 321.385864 862.052307 C 311.376129 862.052307 301.774536 858.085632 294.684326 851.018311 C 287.606049 843.936035 283.630432 834.330444 283.630432 824.316772 C 283.630432 814.303101 287.606049 804.69751 294.684326 797.615234 L 332.061981 760.238098 Z M 978.075439 658.807068 C 1020.489319 701.315552 1044.309204 758.914185 1044.309204 818.966553 C 1044.309204 879.018921 1020.489319 936.617554 978.075439 979.125916 C 935.567078 1021.539917 877.968323 1045.359741 817.916016 1045.359741 C 757.863647 1045.359741 700.264954 1021.539917 657.756531 979.125916 L 385.613861 706.884766 L 465.694092 626.804993 L 743.360718 904.47113 C 764.612427 925.678162 793.414307 937.588074 823.44043 937.588074 C 853.466614 937.588074 882.263489 925.678162 903.520142 904.47113 C 924.727173 883.214478 936.637085 854.417603 936.637085 824.391418 C 936.637085 794.365234 924.727173 765.563416 903.520142 744.311646 L 866.143005 706.93457 L 946.222778 626.854797 L 978.075439 658.807068 Z M 759.088013 813.641113 L 812.491089 760.238098 L 849.868286 797.615234 C 856.935608 804.702515 860.902283 814.308044 860.902283 824.316772 C 860.902283 834.3255 856.935608 843.926147 849.868286 851.018311 C 842.776062 858.085632 833.175476 862.052307 823.166748 862.052307 C 813.157959 862.052307 803.552429 858.085632 796.46521 851.018311 L 759.088013 813.641113 Z M 978.075439 487.947083 L 705.73468 760.287842 L 625.654968 680.20813 L 903.321106 402.541504 C 924.528015 381.286743 936.438049 352.486938 936.438049 322.461731 C 936.438049 292.436096 924.528015 263.63678 903.321106 242.382019 C 882.064392 221.1745 853.267578 209.264099 823.241394 209.264099 C 793.21521 209.264099 764.413391 221.1745 743.161621 242.382019 L 705.784485 279.758728 L 625.704773 199.679504 L 657.756531 167.627625 C 700.264954 125.212219 757.863647 101.391479 817.916016 101.391479 C 877.968323 101.391479 935.567078 125.212219 978.075439 167.627625 C 1020.549072 210.115173 1044.423706 267.720337 1044.458496 327.795532 C 1044.498413 387.871277 1020.69342 445.505798 978.274536 488.046631 L 978.075439 487.947083 Z"/>
</svg>
